{
    "antifeatures": {
        "Ads": "Asnas-a yegber adellel",
        "DisabledAlgorithm": "Asnas-a yegber azmul n tɣellist iḍeɛfen",
        "KnownVuln": "Asnas-a yegber tawwurt s tɣellist iḍeɛfen",
        "NoSourceSince": "Tangalt n uɣbalu ulac-it, ileqman ur zgin ttwasumren",
        "NonFreeAdd": "Asna-s yeskan-d isiɣzaf ur nelli d ilelliyen",
        "NonFreeAssets": "Asnas-a igber iferdisen ur nelli ara d ilelliyen",
        "NonFreeDep": "Asnas-a icudd ɣer yisnasen-nniḍen ur nelli ara d ilelliyen",
        "NonFreeNet": "Asnas-a iskan-d imeẓla n yiẓedwa ur nelli ara d ilelliyen",
        "Tracking": "Asnas-agi ad yeḍfeṛ udiγ ad d-yazen armud-ik",
        "UpstreamNonFree": "Tangalt aɣbalu s ufella ur telli ara d tilellit"
    },
    "app_categories": {
        "Connectivity": "Tuqqniwt",
        "Development": "Taneflit",
        "Games": "Uraren",
        "Graphics": "Tiẓrudlifin",
        "Internet": "Internet",
        "Money": "Tadrimt",
        "Multimedia": "Umuγ n ugetmedia",
        "Navigation": "Asnirem",
        "Phone & SMS": "Tiliγri d SMS",
        "Reading": "Taɣuri",
        "Science & Education": "Tussna &amp; Usegmi",
        "Security": "Taɣellist",
        "Sports & Health": "Addal &amp; Tazmert",
        "System": "Anagraw",
        "Theming": "Afran n wudem",
        "Time": "Akud",
        "Writing": "Tira",
        "show_all_packages": "Sken-d meṛṛa %d n yikemmusen"
    },
    "index": {
        "download_fdroid": "Sider F-Droid",
        "gpg_signature": "Azmul PGP",
        "introduction": "F-Droid d akatalug yettwasebdaden n yisnasen n iseγzanen illelliyen neγ n uγbalu yeldin γef tetiknulujit Android. Amsaγ ad yessifses tunigin, asebded akked uḍfaṛ n ileqman γef yibenk-ik.",
        "screenshot": "Tuṭṭfa n ugdil n usnas Android F-Droid",
        "title": "D acu-t F-Droid ?"
    },
    "navigation": {
        "about": "Γef",
        "apps": "Isnasen",
        "contribute": "Ttekki",
        "documentation": "Tasemlit",
        "edit_on_gitlab": "Beddel deg GitLab",
        "forum": "Anmager",
        "issues": "Uguren",
        "news": "Isallen",
        "translate_on_weblate": "Suqel deg Weblate"
    },
    "package": {
        "added_on": "Rnu {{ package_added_date }}",
        "anti_features": "Yir timhilin",
        "anti_features_warning": "Asnas-ayi degs kra n timahilin yezmer ur ten tḥemmelḍ ara.",
        "author": "Ameskar",
        "build_log": "Aɣmis n yileqman",
        "build_metadata": "Aswel uγefisefka",
        "changelog": "Aγmis n ibeddilen",
        "donate": "Tawsa",
        "download": "Sider {{ file_extension }}",
        "flattr": "Flattr",
        "gpg_signature": "Azmul PGP",
        "issue_tracker": "Aneḍfaṛ n ibugen",
        "liberapay": "Liberapay",
        "license": "Aselkin",
        "minimum_android_version": "Lqem-agi ilaq as Android {{ android_version }} neγ ugar.",
        "new_in_version": "Amaynut di lqem {{ latest_version }}",
        "opencollective": "Ldi Collective",
        "package_icon_alt": "Tignit n ukemmus",
        "package_screenshot_alt": "Tuṭṭfa n ugdil n usnas",
        "packages": "Ikemmusen",
        "permissions": "Tisirag",
        "signed_by_developer": "Yefsa-t udiγ izmel-it uneflay anesli.",
        "signed_by_fdroid": "Yebna udiγ yezmel sγur F-Droid, yettwaḍmen akken ad imeγru d <a href=\"{{ source_code_url }}\">d uγbalu-agi n uγbaṛ</a>.",
        "source_code": "Tangalt aγbalu",
        "suggest_downloading_via_fdroid": "Γas akken asider n APK yella ddaw-a, ẓer d akken ma tesbeddeḍ asnas s tarrayrt-agi, ur d-tremseḍ ara ar zdat ilγa udiq d tarrayt ur nerkid ara i usider. Yelha limer ad tesbeddeḍ amsaγ F-Droid i waya.",
        "suggested": "ittwasumer",
        "technical_info": "Talγut tatiknikant",
        "translation": "Tasuqilt",
        "version_info": "<b>Lqem {{ package_version }}</b> ({{ package_version_code }})",
        "website": "Asmel Web"
    },
    "permissions": {
        "permdesc_acceptHandovers": "Sireg asnas ad ikemmel asiwel i yekkren deg usnas-nniḍen.",
        "permdesc_accessBackgroundLocation": "Ma yella tettunefk tsiregt-nniḍen n unekcum ɣer wadig iqerben neɣ usdid, asnas izmer ad yekcem ɣer wadig-ik deg lawan anida yettwaselkam deg ugilal.",
        "permdesc_accessCoarseLocation": "Asnas-a izmer ad yawi adig ɣef akken llan yiɣbula n uẓeṭṭa am texxamin n tiliqriyin n ufus akked iẓedwa Wi-Fi, maca ala ma yella usnas yettwaselkam deg ugilal. Imeẓla-a n usideg ilaq ad remden daɣne ad ttwakcamen deg tiliɣri-ik akken asnas ad yizmir ad ten-yesseqdec.",
        "permdesc_accessDrmCertificates": "Ad yeǧǧ asnas ad d-imudd daɣen ad iseqdec iselkinen DRM. Mačči d ayen ara ilaqen ilebda i yisnasen imugna.",
        "permdesc_accessFineLocation": "Asnas-a izmer ad d-yaf adig usdid ala ma yella iban-d s wudem. Imeẓla-a n usideg ilaq ad ttwaremden deg tiliɣri-ik akken asnas ad yizmir ad ten-iseqdec. Aya izmer ad yesnerni učči n uẓru.",
        "permdesc_accessImsCallService": "Ad isireg asnas ad iseqdec ameẓlu IMS akken yeg isawalen mebla taguri n ufus.",
        "permdesc_accessLocationExtraCommands": "Ad isireg asnas ad yekcem ɣer tludna-nniden n usideg. Aya izmer ad yeǧǧ asnas ad d-iger iman-is akken tiddin n GPS neɣ iɣbula-nniḍen n usideg.",
        "permdesc_accessNetworkConditions": "Ad yeǧǧ asnas ad isɣed i uqareɛ n tewtilt n uzeṭṭa. Ur ilaq ara i yisnasen menwala.",
        "permdesc_accessNetworkState": "Ad yeǧǧ asnas ad yekcem ɣef telɣut n tuqqniwin n uẓeṭṭa, am yiẓedwa yellan daɣen qqnen.",
        "permdesc_accessNotifications": "Ad yeǧǧ isnasen ad d-awin, ad selḍen daɣen ad sirgen ilɣa, ula d wid i d-uznen isnasen-nniḍen.",
        "permdesc_activityRecognition": "Asnas-a izmer ad iɛqel armud-ik•im aɣaran.",
        "permdesc_addVoicemail": "Ad isireg asnas akken ad yernu iznan ɣer tebwaṭ-ik•im n yiznan n taɣect.",
        "permdesc_answerPhoneCalls": "Ad isireg asnas akken ad yerr ɣef usawal i d-ikecmen.",
        "permdesc_audioWrite": "Ad isireg asnas akken ad ibeddel talkensit-ik•im n uẓawan.",
        "permdesc_camera": "Asnas-a izmer ad yeṭṭef tiwlafin daɣen ad issekles tvidyutin s useqdec n tkamirat deg yal akud.",
        "permdesc_changeNetworkState": "Ad isireg asnas akken ad ibeddel addad n tuqqna n uẓeṭṭa.",
        "permdesc_enableCarMode": "Ad isireg asnas akken ad irmed askar n tkeṛṛust.",
        "permdesc_imagesWrite": "Ad isireg asnas akken ad ibeddel talkensit-ik•im n tewlafin.",
        "permgrouplab_calendar": "Awitay",
        "permgrouplab_camera": "Takamiṛat",
        "permgrouplab_contacts": "Inermisen",
        "permgrouplab_location": "Adeg",
        "permgrouplab_microphone": "Asawaḍ",
        "permgrouplab_phone": "Tiliɣri",
        "permgrouplab_sms": "SMS",
        "permgrouplab_storage": "Asekles",
        "permgrouprequest_calendar": "Sireg <b>",
        "permgrouprequest_calllog": "Sireg <b>",
        "permgrouprequest_camera": "Sireg <b>",
        "permgrouprequest_contacts": "Sireg <b>",
        "permgrouprequest_location": "Sireg <b>",
        "permgrouprequest_microphone": "Sireg <b>",
        "permgrouprequest_phone": "Sireg <b>",
        "permgrouprequest_sensors": "Sireg <b>",
        "permgrouprequest_sms": "Sireg <b>",
        "permgrouprequest_storage": "Sireg <b>",
        "permlab_readPhoneNumbers": "Ɣer uṭṭunen n tiliɣri",
        "permlab_readPhoneState": "Ɣer addad akked tamagit n timiɣri",
        "permlab_readSms": "Ɣer Iznan-ik iḍrisen (SMS neɣ MMS)"
    },
    "sidebars": {
        "donate": {
            "bank_transfer_name": "Isem",
            "bitcoin_alt": "Mudd s Bitcoin",
            "flattr_alt": "Mudd s Flattr",
            "heading": "Tawsa",
            "hellotux": "👕 Itrikuyen 👕 sγuṛ",
            "hellotux_alt": "HELLOTUX",
            "hellotux_donation": "F-Droid ad yawi 3 € seg yal atriku yenzan.",
            "liberapay_alt": "Mudd s Liberapay",
            "litecoin_alt": "Mudd s LiteCoin",
            "paypal_alt": "Mudd s Paypal",
            "powered_by_donations": "F-Droid yettidir s tewsa-ik !",
            "via_bank_transfer": "Asiweḍ s lbanka"
        },
        "lang": {
            "change": "Beddel"
        },
        "last_updated": {
            "heading": "Aleqqem aneggaru"
        },
        "latest_packages": {
            "heading": "Isnasen ineggura"
        },
        "news": {
            "heading": "Isallen"
        },
        "search": {
            "heading": "Af-d isnasen",
            "noscript": "Yesra armad n JavaScript",
            "search": "Nadi"
        }
    }
}
